main|1|0.0.1.0.0.1.0.0.0.0.0.0.
dot|1|3.3.1.0.0.0.0.0.0.0.0.0.
dot|1|3.2.0.0.0.0.0.0.0.0.0.0.
dot|1|4.2.1.0.0.0.0.0.0.0.0.0.
dot|1|0.0.1.0.0.0.0.0.0.0.0.0.
dot|1|0.0.1.0.0.0.0.0.0.0.0.0.
main|1|7.0.0.0.0.0.0.0.0.0.0.0.
set_fast_math|1|0.0.2.0.0.0.0.0.0.0.0.0.
