x
10
x
1 2
1 3
2 0
2 2
2 3
x
1110000000000010
1100000100000010
1100000010000010
1100000001000010
1100000000000001
0100000000000000
1110000000000000
1100000100000000
1100000010000000
1100000001000000
x
oddEven.noBug.m.2.1
oddEven.potential-DL.m.2.1
x
