This is a problem file for the ILCS Traveling Salesperson Problem.


cities: 20

NODE_COORD_SECTION
1 213.40 263.84
2 831.64 30.34
3 950.84 286.85
4 563.42 277.39
5 954.31 93.68
6 438.71 639.26
7 90.96 519.32
8 380.12 414.80
9 579.91 644.34
10 297.19 669.92
11 307.24 26.33
12 93.95 325.90
13 757.69 565.20
14 383.13 612.15
15 641.96 724.83
16 875.63 979.67
17 39.93 234.58
18 278.97 480.21
19 12.82 120.52
20 455.55 712.67
EOF
