dot|dot-product-2|12|1|2.0.0.1.0.0.0.0.0.0.0.0.0.0.0.0.0.
dot|dot-product-2|10|1|0.2.0.1.0.3.3.1.0.0.0.0.0.0.0.0.0.
dot|dot-product-2|9|1|0.3.0.1.0.3.2.0.0.0.0.0.0.0.0.0.0.
dot|dot-product-2|7|1|0.4.3.1.1.4.2.1.0.0.0.0.0.0.0.0.0.
dot|dot-product-2|6|1|3.1.2.1.1.0.0.0.0.0.0.0.0.0.0.0.0.
dot|dot-product-2|5|1|0.0.2.1.0.0.0.1.0.0.0.0.0.0.0.0.0.
dot|dot-product-2|4|1|0.0.1.1.0.0.0.0.0.0.0.0.0.0.0.0.0.
dot|dot-product-2|2|1|4.3.3.1.0.0.0.0.0.0.0.0.0.0.0.0.0.
dot|dot-product-2|1|1|2.0.1.1.0.0.0.1.0.0.0.0.0.0.0.0.0.
